\relax 
\providecommand\hyper@newdestlabel[2]{}
\providecommand\HyperFirstAtBeginDocument{\AtBeginDocument}
\HyperFirstAtBeginDocument{\ifx\hyper@anchor\@undefined
\global\let\oldcontentsline\contentsline
\gdef\contentsline#1#2#3#4{\oldcontentsline{#1}{#2}{#3}}
\global\let\oldnewlabel\newlabel
\gdef\newlabel#1#2{\newlabelxx{#1}#2}
\gdef\newlabelxx#1#2#3#4#5#6{\oldnewlabel{#1}{{#2}{#3}}}
\AtEndDocument{\ifx\hyper@anchor\@undefined
\let\contentsline\oldcontentsline
\let\newlabel\oldnewlabel
\fi}
\fi}
\global\let\hyper@last\relax 
\gdef\HyperFirstAtBeginDocument#1{#1}
\providecommand\HyField@AuxAddToFields[1]{}
\providecommand\HyField@AuxAddToCoFields[2]{}
\providecommand \oddpage@label [2]{}
\@writefile{toc}{\contentsline {chapter}{\numberline {1}Verlet\discretionary {\unhbox \voidb@x \hbox {\relax \fontsize  {7}{8}\selectfont  $\leftarrow \joinrel  \rhook $}}{}{}\_\discretionary {\unhbox \voidb@x \hbox {\relax \fontsize  {7}{8}\selectfont  $\leftarrow \joinrel  \rhook $}}{}{}list\discretionary {\unhbox \voidb@x \hbox {\relax \fontsize  {7}{8}\selectfont  $\leftarrow \joinrel  \rhook $}}{}{}\_\discretionary {\unhbox \voidb@x \hbox {\relax \fontsize  {7}{8}\selectfont  $\leftarrow \joinrel  \rhook $}}{}{}for\discretionary {\unhbox \voidb@x \hbox {\relax \fontsize  {7}{8}\selectfont  $\leftarrow \joinrel  \rhook $}}{}{}\_\discretionary {\unhbox \voidb@x \hbox {\relax \fontsize  {7}{8}\selectfont  $\leftarrow \joinrel  \rhook $}}{}{}\discretionary {\unhbox \voidb@x \hbox {\relax \fontsize  {7}{8}\selectfont  $\leftarrow \joinrel  \rhook $}}{}{}O\discretionary {\unhbox \voidb@x \hbox {\relax \fontsize  {7}{8}\selectfont  $\leftarrow \joinrel  \rhook $}}{}{}DE}{1}{chapter.1}}
\@writefile{lof}{\addvspace {10\p@ }}
\@writefile{lot}{\addvspace {10\p@ }}
\newlabel{md_README}{{1}{1}{Verlet\+\_\+list\+\_\+for\+\_\+\+O\+DE}{chapter.1}{}}
\@writefile{toc}{\contentsline {chapter}{\numberline {2}Class Index}{5}{chapter.2}}
\@writefile{lof}{\addvspace {10\p@ }}
\@writefile{lot}{\addvspace {10\p@ }}
\@writefile{toc}{\contentsline {section}{\numberline {2.1}Class List}{5}{section.2.1}}
\@writefile{toc}{\contentsline {chapter}{\numberline {3}Class Documentation}{7}{chapter.3}}
\@writefile{lof}{\addvspace {10\p@ }}
\@writefile{lot}{\addvspace {10\p@ }}
\@writefile{toc}{\contentsline {section}{\numberline {3.1}int3p Struct Reference}{7}{section.3.1}}
\newlabel{structint3p}{{3.1}{7}{int3p Struct Reference}{section.3.1}{}}
\newlabel{structint3p_ae99c7d59948305f6971cb5c3bf06d8d8}{{3.1}{7}{Public Member Functions}{section*.5}{}}
\newlabel{structint3p_a49e3d953bded29b1c8d3cb7934417803}{{3.1}{7}{Public Attributes}{section*.6}{}}
\newlabel{structint3p_aa26ab379cf5d83c571f37f22ee92328f}{{3.1}{7}{Public Attributes}{section*.6}{}}
\newlabel{structint3p_a547dd8b7a402938e7056ee08fff7155f}{{3.1}{7}{Public Attributes}{section*.6}{}}
\newlabel{structint3p_a14c1299ee326cf3381c284c494435b5b}{{3.1}{7}{Public Attributes}{section*.6}{}}
\@writefile{toc}{\contentsline {subsection}{\numberline {3.1.1}Detailed Description}{7}{subsection.3.1.1}}
\@writefile{toc}{\contentsline {section}{\numberline {3.2}matrix3 Struct Reference}{8}{section.3.2}}
\newlabel{structmatrix3}{{3.2}{8}{matrix3 Struct Reference}{section.3.2}{}}
\newlabel{structmatrix3_aa4e1d0378cedec92f9045144f7caea4b}{{3.2}{8}{Public Member Functions}{section*.8}{}}
\newlabel{structmatrix3_a6c6a3da07123b0243bc6c796f6cd3bcb}{{3.2}{8}{Public Attributes}{section*.9}{}}
\newlabel{structmatrix3_ae1a223b8d857d8f4e24079749378a282}{{3.2}{8}{Public Attributes}{section*.9}{}}
\newlabel{structmatrix3_ad2191d3566cdca08083caff54d326e95}{{3.2}{8}{Public Attributes}{section*.9}{}}
\@writefile{toc}{\contentsline {section}{\numberline {3.3}vec2 Struct Reference}{8}{section.3.3}}
\newlabel{structvec2}{{3.3}{8}{vec2 Struct Reference}{section.3.3}{}}
\@writefile{toc}{\contentsline {subsection}{\numberline {3.3.1}Detailed Description}{9}{subsection.3.3.1}}
\@writefile{toc}{\contentsline {subsection}{\numberline {3.3.2}Constructor \& Destructor Documentation}{9}{subsection.3.3.2}}
\newlabel{structvec2_ae12a1a221eca3561809600a11b58eaa3}{{3.3.2}{9}{Constructor \& Destructor Documentation}{subsection.3.3.2}{}}
\@writefile{toc}{\contentsline {subsubsection}{\numberline {3.3.2.1}vec2()\hspace  {0.1cm}{\relax \fontsize  {8}{9.5}\selectfont  \abovedisplayskip 6\p@ plus2\p@ minus4\p@ \abovedisplayshortskip \z@ plus\p@ \belowdisplayshortskip 3\p@ plus\p@ minus2\p@ \def \leftmargin \leftmargini \parsep 4\p@ plus2\p@ minus\p@ \topsep 8\p@ plus2\p@ minus4\p@ \itemsep 4\p@ plus2\p@ minus\p@ {\leftmargin \leftmargini \topsep 3\p@ plus\p@ minus\p@ \parsep 2\p@ plus\p@ minus\p@ \itemsep \parsep }\belowdisplayskip \abovedisplayskip \ttfamily  [1/2]}}{9}{subsubsection.3.3.2.1}}
\newlabel{structvec2_af48dce3f208e057c81e8e75a5a898744}{{3.3.2.1}{9}{\texorpdfstring {vec2()}{vec2()}\hspace {0.1cm}{\footnotesize \ttfamily [1/2]}}{subsubsection.3.3.2.1}{}}
\@writefile{toc}{\contentsline {subsubsection}{\numberline {3.3.2.2}vec2()\hspace  {0.1cm}{\relax \fontsize  {8}{9.5}\selectfont  \abovedisplayskip 6\p@ plus2\p@ minus4\p@ \abovedisplayshortskip \z@ plus\p@ \belowdisplayshortskip 3\p@ plus\p@ minus2\p@ \def \leftmargin \leftmargini \parsep 4\p@ plus2\p@ minus\p@ \topsep 8\p@ plus2\p@ minus4\p@ \itemsep 4\p@ plus2\p@ minus\p@ {\leftmargin \leftmargini \topsep 3\p@ plus\p@ minus\p@ \parsep 2\p@ plus\p@ minus\p@ \itemsep \parsep }\belowdisplayskip \abovedisplayskip \ttfamily  [2/2]}}{9}{subsubsection.3.3.2.2}}
\@writefile{toc}{\contentsline {subsection}{\numberline {3.3.3}Member Data Documentation}{9}{subsection.3.3.3}}
\newlabel{structvec2_ac38b8dcc3bc5eb2b4fb6971638af64d1}{{3.3.3}{9}{Member Data Documentation}{subsection.3.3.3}{}}
\@writefile{toc}{\contentsline {subsubsection}{\numberline {3.3.3.1}x}{9}{subsubsection.3.3.3.1}}
\newlabel{structvec2_a77fcc56ac7af5cee53b8ca789dacac1f}{{3.3.3.1}{9}{\texorpdfstring {x}{x}}{subsubsection.3.3.3.1}{}}
\@writefile{toc}{\contentsline {subsubsection}{\numberline {3.3.3.2}y}{9}{subsubsection.3.3.3.2}}
\@writefile{toc}{\contentsline {section}{\numberline {3.4}vec3 Struct Reference}{9}{section.3.4}}
\newlabel{structvec3}{{3.4}{9}{vec3 Struct Reference}{section.3.4}{}}
\@writefile{toc}{\contentsline {subsection}{\numberline {3.4.1}Detailed Description}{10}{subsection.3.4.1}}
\@writefile{toc}{\contentsline {subsection}{\numberline {3.4.2}Constructor \& Destructor Documentation}{10}{subsection.3.4.2}}
\newlabel{structvec3_aea9f3480a6ccd7ce3ab02d0992705d33}{{3.4.2}{10}{Constructor \& Destructor Documentation}{subsection.3.4.2}{}}
\@writefile{toc}{\contentsline {subsubsection}{\numberline {3.4.2.1}vec3()\hspace  {0.1cm}{\relax \fontsize  {8}{9.5}\selectfont  \abovedisplayskip 6\p@ plus2\p@ minus4\p@ \abovedisplayshortskip \z@ plus\p@ \belowdisplayshortskip 3\p@ plus\p@ minus2\p@ \def \leftmargin \leftmargini \parsep 4\p@ plus2\p@ minus\p@ \topsep 8\p@ plus2\p@ minus4\p@ \itemsep 4\p@ plus2\p@ minus\p@ {\leftmargin \leftmargini \topsep 3\p@ plus\p@ minus\p@ \parsep 2\p@ plus\p@ minus\p@ \itemsep \parsep }\belowdisplayskip \abovedisplayskip \ttfamily  [1/2]}}{10}{subsubsection.3.4.2.1}}
\newlabel{structvec3_ab10a7c404ece30e8f38d9b41f5425f63}{{3.4.2.1}{10}{\texorpdfstring {vec3()}{vec3()}\hspace {0.1cm}{\footnotesize \ttfamily [1/2]}}{subsubsection.3.4.2.1}{}}
\@writefile{toc}{\contentsline {subsubsection}{\numberline {3.4.2.2}vec3()\hspace  {0.1cm}{\relax \fontsize  {8}{9.5}\selectfont  \abovedisplayskip 6\p@ plus2\p@ minus4\p@ \abovedisplayshortskip \z@ plus\p@ \belowdisplayshortskip 3\p@ plus\p@ minus2\p@ \def \leftmargin \leftmargini \parsep 4\p@ plus2\p@ minus\p@ \topsep 8\p@ plus2\p@ minus4\p@ \itemsep 4\p@ plus2\p@ minus\p@ {\leftmargin \leftmargini \topsep 3\p@ plus\p@ minus\p@ \parsep 2\p@ plus\p@ minus\p@ \itemsep \parsep }\belowdisplayskip \abovedisplayskip \ttfamily  [2/2]}}{10}{subsubsection.3.4.2.2}}
\@writefile{toc}{\contentsline {subsection}{\numberline {3.4.3}Member Data Documentation}{10}{subsection.3.4.3}}
\newlabel{structvec3_ae25ebf32c019afc408f51f6117558365}{{3.4.3}{10}{Member Data Documentation}{subsection.3.4.3}{}}
\@writefile{toc}{\contentsline {subsubsection}{\numberline {3.4.3.1}x}{10}{subsubsection.3.4.3.1}}
\newlabel{structvec3_a9c3ca9a994470ce9bc9fee5963439fba}{{3.4.3.1}{10}{\texorpdfstring {x}{x}}{subsubsection.3.4.3.1}{}}
\@writefile{toc}{\contentsline {subsubsection}{\numberline {3.4.3.2}y}{11}{subsubsection.3.4.3.2}}
\newlabel{structvec3_a2b02670cfe437ee01416916bac917584}{{3.4.3.2}{11}{\texorpdfstring {y}{y}}{subsubsection.3.4.3.2}{}}
\@writefile{toc}{\contentsline {subsubsection}{\numberline {3.4.3.3}z}{11}{subsubsection.3.4.3.3}}
