nbonds 2534
iterations 10000
every 1000
length_unit 5.000000e-08
time_unit 2.648945e-08
mass_unit 1.162000e-21
xmass 1.000000e+07
force_unit 8.280000e-14
energy_unit 4.140000e-21
kBT 1.000000e+00
dt 1.869230e+01
tau 1.869230e+03
dofs 7650
nucleus_radius_nm 1.000000e+03
gyroscopic 1
erp 0.80
cfm 1.00e-09
w(SOR) 1.300000
n(SOR) 50
